{
  "users": {
    "loading": false,
    "currentPage": 1,
    "pageCount": 3,
    "totalCount": 12,
    "perPage": 5,
    "data": [
      {
        "id":1,
        "first_name":"George",
        "last_name":"Bluth",
        "avatar":"https://s3.amazonaws.com/uifaces/faces/twitter/calebogden/128.jpg"
      },
      {
        "id":2,
        "first_name":"Janet",
        "last_name":"Weaver",
        "avatar":"https://s3.amazonaws.com/uifaces/faces/twitter/josephstein/128.jpg"
      },
      {
        "id":3,
        "first_name":"Emma",
        "last_name":"Wong",
        "avatar":"https://s3.amazonaws.com/uifaces/faces/twitter/olegpogodaev/128.jpg"
      },
      {
        "id":4,
        "first_name":"Eve",
        "last_name":"Holt",
        "avatar":"https://s3.amazonaws.com/uifaces/faces/twitter/marcoramires/128.jpg"
      },
      {
        "id":5,
        "first_name":"Charles",
        "last_name":"Morris",
        "avatar":"https://s3.amazonaws.com/uifaces/faces/twitter/stephenmoon/128.jpg"
      }
    ]
  }
}
